Command line:
   KP_tree_pipe_mult_isim_beh.exe
     -simmode  gui
     -simrunnum  0
     -socket  51431

Tue Dec 12 19:33:59 2017


 Elaboration Time: 0.09375 sec

 Current Memory Usage: 365.253 Meg

 Total Signals          : 67
 Total Nets             : 1794
 Total Signal Drivers   : 61
 Total Blocks           : 3
 Total Primitive Blocks : 3
 Total Processes        : 49
 Total Traceable Variables  : 14
 Total Scalar Nets and Variables : 2278

 Total Simulation Time: 0.1875 sec

 Current Memory Usage: 365.253 Meg

Tue Dec 12 19:34:18 2017

